<?xml version="1.0" encoding="UTF-8"?>
<svg width="1440px" height="1080px" viewBox="0 0 1440 1080" version="1.1" xmlns="http://www.w3.org/2000/svg" xmlns:xlink="http://www.w3.org/1999/xlink">
    <!-- Generator: Sketch 52.5 (67469) - http://www.bohemiancoding.com/sketch -->
    <title>Group 14</title>
    <desc>Created with Sketch.</desc>
    <defs>
        <rect id="path-1" x="0" y="0" width="1440" height="1080"></rect>
    </defs>
    <g id="Home" stroke="none" stroke-width="1" fill="none" fill-rule="evenodd">
        <g id="Desktop-HD-Copy" transform="translate(0.000000, -810.000000)">
            <g id="Group-14" transform="translate(0.000000, 810.000000)">
                <g>
                    <mask id="mask-2" fill="white">
                        <use xlink:href="#path-1"></use>
                    </mask>
                    <use id="Mask" fill="#FFFFFF" xlink:href="#path-1"></use>
                    <g mask="url(#mask-2)" stroke="#DCDCDC" stroke-width="0.5">
                        <g transform="translate(-958.000000, -461.000000)">
                            <path d="M2.27373675e-13,945.017866 L1736.913,1959.64485" id="Stroke-3"></path>
                            <path d="M59.8935,910.031087 L1796.8065,1924.65808" id="Stroke-4"></path>
                            <path d="M119.787,875.043808 L1856.7,1889.6708" id="Stroke-5"></path>
                            <path d="M179.6806,840.056529 L1916.5936,1854.68352" id="Stroke-6"></path>
                            <path d="M239.5742,805.06925 L1976.4872,1819.69724" id="Stroke-7"></path>
                            <path d="M299.4677,770.082472 L2036.3807,1784.70946" id="Stroke-8"></path>
                            <path d="M359.3613,735.095193 L2096.2743,1749.72218" id="Stroke-9"></path>
                            <path d="M419.2548,700.107914 L2156.1678,1714.7349" id="Stroke-10"></path>
                            <path d="M479.1484,665.121135 L2216.0614,1679.74812" id="Stroke-11"></path>
                            <path d="M539.042,630.133856 L2275.955,1644.76084" id="Stroke-12"></path>
                            <path d="M598.9355,595.146577 L2335.8485,1609.77357" id="Stroke-13"></path>
                            <path d="M658.8291,560.159298 L2395.7421,1574.78629" id="Stroke-14"></path>
                            <path d="M718.7226,525.172519 L2455.6356,1539.79951" id="Stroke-15"></path>
                            <path d="M778.6162,490.18524 L2515.5292,1504.81223" id="Stroke-16"></path>
                            <path d="M838.5097,455.197961 L2575.4227,1469.82495" id="Stroke-17"></path>
                            <path d="M898.4033,420.210682 L2635.3163,1434.83867" id="Stroke-18"></path>
                            <path d="M958.2968,385.223904 L2695.2098,1399.85089" id="Stroke-19"></path>
                            <path d="M1018.1903,350.236625 L2755.1033,1364.86361" id="Stroke-20"></path>
                            <path d="M1078.0839,315.249345 L2814.9969,1329.87633" id="Stroke-21"></path>
                            <path d="M1137.9774,280.262066 L2874.8904,1294.88905" id="Stroke-22"></path>
                            <path d="M1197.871,245.275288 L2934.784,1259.90228" id="Stroke-23"></path>
                            <path d="M1257.7646,210.288009 L2994.6776,1224.915" id="Stroke-24"></path>
                            <path d="M1317.6586,175.30073 L3054.5706,1189.92772" id="Stroke-25"></path>
                            <path d="M1377.5522,140.313451 L3114.4642,1154.94144" id="Stroke-26"></path>
                            <path d="M1437.4457,105.326672 L3174.3577,1119.95366" id="Stroke-27"></path>
                            <path d="M1497.3393,70.3393931 L3234.2513,1084.96638" id="Stroke-28"></path>
                            <path d="M1557.2328,35.352114 L3294.1448,1049.9791" id="Stroke-29"></path>
                            <path d="M1617.1264,0.364935065 L3354.0394,1014.99192" id="Stroke-30"></path>
                            <path d="M1737.1537,0.507119481 L0.2427,1015.13311" id="Stroke-32"></path>
                            <path d="M1797.0473,35.4943986 L60.1363,1050.12039" id="Stroke-35"></path>
                            <path d="M1856.9408,70.481177 L120.0298,1085.10716" id="Stroke-36"></path>
                            <path d="M1916.8344,105.468456 L179.9234,1120.09444" id="Stroke-37"></path>
                            <path d="M1976.7279,140.455735 L239.8169,1155.08172" id="Stroke-38"></path>
                            <path d="M2036.6215,175.443014 L299.7105,1190.069" id="Stroke-39"></path>
                            <path d="M2096.515,210.429793 L359.604,1225.05578" id="Stroke-40"></path>
                            <path d="M2156.4086,245.417072 L419.4976,1260.04306" id="Stroke-41"></path>
                            <path d="M2216.3022,280.404351 L479.3912,1295.03034" id="Stroke-42"></path>
                            <path d="M2276.1957,315.39163 L539.2847,1330.01762" id="Stroke-43"></path>
                            <path d="M2336.0893,350.378408 L599.1783,1365.0044" id="Stroke-44"></path>
                            <path d="M2395.9828,385.365688 L659.0718,1399.99167" id="Stroke-45"></path>
                            <path d="M2455.8764,420.352967 L718.9654,1434.97895" id="Stroke-46"></path>
                            <path d="M2515.7699,455.339745 L778.8589,1469.96573" id="Stroke-47"></path>
                            <path d="M2575.6635,490.327024 L838.7525,1504.95301" id="Stroke-48"></path>
                            <path d="M2635.557,525.314303 L898.646,1539.94029" id="Stroke-49"></path>
                            <path d="M2695.4506,560.301582 L958.5396,1574.92757" id="Stroke-50"></path>
                            <path d="M2755.3441,595.288361 L1018.4331,1609.91535" id="Stroke-51"></path>
                            <path d="M2815.2377,630.27564 L1078.3267,1644.90163" id="Stroke-52"></path>
                            <path d="M2875.1313,665.262919 L1138.2203,1679.88891" id="Stroke-53"></path>
                            <path d="M2935.0248,700.250198 L1198.1138,1714.87619" id="Stroke-54"></path>
                            <path d="M2994.9184,735.236976 L1258.0074,1749.86296" id="Stroke-55"></path>
                            <path d="M3054.8119,770.224256 L1317.9009,1784.85024" id="Stroke-56"></path>
                            <path d="M3114.7055,805.211535 L1377.7945,1819.83752" id="Stroke-57"></path>
                            <path d="M3174.599,840.198814 L1437.688,1854.8248" id="Stroke-58"></path>
                            <path d="M3234.4926,875.185592 L1497.5816,1889.81258" id="Stroke-59"></path>
                            <path d="M3294.3871,910.172871 L1557.4751,1924.79886" id="Stroke-60"></path>
                            <path d="M3354.2807,945.16015 L1617.3687,1959.78614" id="Stroke-61"></path>
                        </g>
                    </g>
                </g>
            </g>
        </g>
    </g>
</svg>