<?xml version="1.0" encoding="UTF-8"?>
<svg width="14px" height="18px" viewBox="0 0 14 18" version="1.1" xmlns="http://www.w3.org/2000/svg" xmlns:xlink="http://www.w3.org/1999/xlink">
    <!-- Generator: Sketch 52.6 (67491) - http://www.bohemiancoding.com/sketch -->
    <title>Group 22</title>
    <desc>Created with Sketch.</desc>
    <g id="Home" stroke="none" stroke-width="1" fill="none" fill-rule="evenodd">
        <g id="Desktop" transform="translate(-149.000000, -4306.000000)" stroke="#222222" stroke-width="2">
            <g id="Group-25-Copy" transform="translate(150.000000, 4150.000000)">
                <g id="Group-22" transform="translate(0.000000, 157.000000)">
                    <g id="Group-15">
                        <rect id="Rectangle" x="0" y="0" width="12" height="16" rx="2"></rect>
                        <path d="M4,12 L8,12" id="Line-2" stroke-linecap="square"></path>
                    </g>
                </g>
            </g>
        </g>
    </g>
</svg>